%YAML 1.1
%TAG !u! tag:unity3d.com,2011:
--- !u!1045 &1
EditorBuildSettings:
  m_ObjectHideFlags: 0
  serializedVersion: 2
  m_Scenes:
  - enabled: 1
    path: Assets/GoogleVR/Demos/Scenes/ProjectsList.unity
    guid: 5a01b7d3bacf445338a47032c7ccdc99
  - enabled: 1
    path: Assets/GoogleVR/Demos/Scenes/MyTry.unity
    guid: 162d49b8dae1d4aa89bbae0d7cb96b29
